Population Statistics for Countries from 1990-2017
…
Through using the full_join function, I was able to condense the 4 datsets into a single dataset that displayed the variables from every dataset. Full_join was specifically used because the datasets varied in the exact data they displayed. For example, one set might have data from 1800 to 2017, whereas another might have only the years 1990 to 2017. By using full_join, the rows of data that weren’t included in all four datasets were removed so that the final joined dataset would be more manageable. Additionally, na.omit was used because certain datasets were missing data for certain rows or columns. By removing these NA values, the dataset is more concise and easily examined.
By joining in this manner, data from several datasets were dropped. The life expectancy and fertility datasets began in the year 1800 but after the join, all years up to 1990 were dropped. Additionally, many countries were dropped from several datasets because the CO2 emissions dataset included only 117 countries whereas others had closer to 180. These extra countries were dropped so that the CO2 dataset could be more effectively compared with the others. The cost of cutting out all this data is that the information that can be gained from examining the joined dataset is more limited than if all data had been preserved.

Wrangling Data

full_tidied %>% filter(year < 2000) %>% select(country, life_expectancy) %>% 
    arrange(desc(life_expectancy))

## # A tibble: 1,131 x 2
##    country     life_expectancy
##    <fct>                 <dbl>
##  1 Japan                  81  
##  2 Japan                  80.8
##  3 Japan                  80.8
##  4 Japan                  80.5
##  5 Japan                  80.1
##  6 Switzerland            80.1
##  7 Japan                  80  
##  8 Switzerland            79.8
##  9 Japan                  79.7
## 10 Sweden                 79.6
## # … with 1,121 more rows

full_tidied %>% filter(year < 2000) %>% select(country, life_expectancy) %>% 
    arrange(life_expectancy)

## # A tibble: 1,131 x 2
##    country life_expectancy
##    <fct>             <dbl>
##  1 Rwanda             9.64
##  2 Malawi            44.3 
##  3 Malawi            44.4 
##  4 Malawi            44.7 
##  5 Malawi            45.1 
##  6 Zambia            45.5 
##  7 Zambia            45.5 
##  8 Malawi            45.6 
##  9 Zambia            45.6 
## 10 Zambia            45.7 
## # … with 1,121 more rows

full_tidied %>% filter(year >= 2000) %>% select(country, life_expectancy) %>% 
    arrange(desc(life_expectancy))

## # A tibble: 2,103 x 2
##    country     life_expectancy
##    <fct>                 <dbl>
##  1 Singapore              84.8
##  2 Singapore              84.7
##  3 Singapore              84.4
##  4 Japan                  84.2
##  5 Japan                  84.2
##  6 Singapore              84.2
##  7 Japan                  84.1
##  8 Switzerland            84  
##  9 Singapore              83.9
## 10 Japan                  83.8
## # … with 2,093 more rows

full_tidied %>% filter(year >= 2000) %>% select(country, life_expectancy) %>% 
    arrange(life_expectancy)

## # A tibble: 2,103 x 2
##    country  life_expectancy
##    <fct>              <dbl>
##  1 Malawi              44.6
##  2 Malawi              44.9
##  3 Zimbabwe            45.1
##  4 Zimbabwe            45.1
##  5 Malawi              45.3
##  6 Zimbabwe            45.4
##  7 Zimbabwe            45.4
##  8 Zimbabwe            45.6
##  9 Zimbabwe            45.9
## 10 Malawi              46  
## # … with 2,093 more rows

full_tidied <- full_tidied %>% mutate(lifetime_CO2_consumption = life_expectancy * 
    CO2_emission)
full_tidied %>% select(country, lifetime_CO2_consumption) %>% 
    arrange(lifetime_CO2_consumption)

## # A tibble: 3,234 x 2
##    country  lifetime_CO2_consumption
##    <fct>                       <dbl>
##  1 Namibia                     0    
##  2 Rwanda                      0.749
##  3 Ethiopia                    2.85 
##  4 Ethiopia                    3.11 
##  5 Rwanda                      3.20 
##  6 Rwanda                      3.22 
##  7 Rwanda                      3.23 
##  8 Rwanda                      3.25 
##  9 Rwanda                      3.28 
## 10 Rwanda                      3.28 
## # … with 3,224 more rows

full_tidied %>% select(country, lifetime_CO2_consumption) %>% 
    arrange(desc(lifetime_CO2_consumption))

## # A tibble: 3,234 x 2
##    country    lifetime_CO2_consumption
##    <fct>                         <dbl>
##  1 Luxembourg                    4091.
##  2 Luxembourg                    3993.
##  3 Luxembourg                    3870.
##  4 Luxembourg                    3609.
##  5 Luxembourg                    3504.
##  6 Luxembourg                    3362.
##  7 Luxembourg                    3329.
##  8 Luxembourg                    3252.
##  9 Luxembourg                    3248.
## 10 Luxembourg                    2821.
## # … with 3,224 more rows
…
full_tidied %>% summarize(quantile(life_expectancy))

## # A tibble: 5 x 1
##   `quantile(life_expectancy)`
##                         <dbl>
## 1                        9.64
## 2                       66.6 
## 3                       73.1 
## 4                       77.3 
## 5                       84.8

full_tidied %>% group_by(country) %>% summarize(mean(fertility))

## # A tibble: 117 x 2
##    country    `mean(fertility)`
##    <fct>                  <dbl>
##  1 Albania                 2.08
##  2 Argentina               2.54
##  3 Armenia                 1.67
##  4 Australia               1.85
##  5 Austria                 1.43
##  6 Azerbaijan              2.20
##  7 Bahrain                 2.62
##  8 Bangladesh              2.95
##  9 Belarus                 1.50
## 10 Belgium                 1.71
## # … with 107 more rows

full_tidied %>% group_by(country) %>% summarize(mean(GDP_Per_Capita))

## # A tibble: 117 x 2
##    country    `mean(GDP_Per_Capita)`
##    <fct>                       <dbl>
##  1 Albania                     2937.
##  2 Argentina                   8820.
##  3 Armenia                     2374.
##  4 Australia                  46343.
##  5 Austria                    42746.
##  6 Azerbaijan                  3500 
##  7 Bahrain                    21639.
##  8 Bangladesh                   653.
##  9 Belarus                     4192.
## 10 Belgium                    40329.
## # … with 107 more rows

full_tidied %>% group_by(country) %>% summarize(mean(CO2_emission))

## # A tibble: 117 x 2
##    country    `mean(CO2_emission)`
##    <fct>                     <dbl>
##  1 Albania                   1.56 
##  2 Argentina                 3.85 
##  3 Armenia                   1.78 
##  4 Australia                15.4  
##  5 Austria                  11.4  
##  6 Azerbaijan                3.86 
##  7 Bahrain                  16.9  
##  8 Bangladesh                0.360
##  9 Belarus                   5.84 
## 10 Belgium                  17.2  
## # … with 107 more rows

full_tidied %>% group_by(country) %>% summarize(mean(life_expectancy))

## # A tibble: 117 x 2
##    country    `mean(life_expectancy)`
##    <fct>                        <dbl>
##  1 Albania                       75.8
##  2 Argentina                     74.6
##  3 Armenia                       72.6
##  4 Australia                     80.3
##  5 Austria                       79.0
##  6 Azerbaijan                    67.6
##  7 Bahrain                       74.8
##  8 Bangladesh                    66.5
##  9 Belarus                       70.1
## 10 Belgium                       78.7
## # … with 107 more rows

full_tidied %>% group_by(country) %>% summarize(sd(fertility))

## # A tibble: 117 x 2
##    country    `sd(fertility)`
##    <fct>                <dbl>
##  1 Albania             0.456 
##  2 Argentina           0.215 
##  3 Armenia             0.379 
##  4 Australia           0.0566
##  5 Austria             0.0525
##  6 Azerbaijan          0.389 
##  7 Bahrain             0.522 
##  8 Bangladesh          0.769 
##  9 Belarus             0.196 
## 10 Belgium             0.0899
## # … with 107 more rows

full_tidied %>% group_by(country) %>% summarize(sd(GDP_Per_Capita))

## # A tibble: 117 x 2
##    country    `sd(GDP_Per_Capita)`
##    <fct>                     <dbl>
##  1 Albania                   1194.
##  2 Argentina                 1414.
##  3 Armenia                   1141.
##  4 Australia                 7102.
##  5 Austria                   5181.
##  6 Azerbaijan                1915.
##  7 Bahrain                   1105.
##  8 Bangladesh                 213.
##  9 Belarus                   1693.
## 10 Belgium                   4643.
## # … with 107 more rows

full_tidied %>% group_by(country) %>% summarize(sd(CO2_emission))

## # A tibble: 117 x 2
##    country    `sd(CO2_emission)`
##    <fct>                   <dbl>
##  1 Albania                 0.516
##  2 Argentina               0.574
##  3 Armenia                 0.765
##  4 Australia               1.36 
##  5 Austria                 0.716
##  6 Azerbaijan              0.433
##  7 Bahrain                 4.46 
##  8 Bangladesh              0.152
##  9 Belarus                 1.68 
## 10 Belgium                 1.83 
## # … with 107 more rows

full_tidied %>% group_by(country) %>% summarize(sd(life_expectancy))

## # A tibble: 117 x 2
##    country    `sd(life_expectancy)`
##    <fct>                      <dbl>
##  1 Albania                     1.78
##  2 Argentina                   1.36
##  3 Armenia                     2.16
##  4 Australia                   1.91
##  5 Austria                     1.96
##  6 Azerbaijan                  2.06
##  7 Bahrain                     3.39
##  8 Bangladesh                  4.49
##  9 Belarus                     1.93
## 10 Belgium                     1.67
## # … with 107 more rows

full_tidied %>% group_by(country) %>% summarize(var(fertility))

## # A tibble: 117 x 2
##    country    `var(fertility)`
##    <fct>                 <dbl>
##  1 Albania             0.208  
##  2 Argentina           0.0464 
##  3 Armenia             0.144  
##  4 Australia           0.00320
##  5 Austria             0.00275
##  6 Azerbaijan          0.151  
##  7 Bahrain             0.273  
##  8 Bangladesh          0.592  
##  9 Belarus             0.0384 
## 10 Belgium             0.00808
## # … with 107 more rows

full_tidied %>% group_by(country) %>% summarize(var(GDP_Per_Capita))

## # A tibble: 117 x 2
##    country    `var(GDP_Per_Capita)`
##    <fct>                      <dbl>
##  1 Albania                 1426474.
##  2 Argentina               1998663.
##  3 Armenia                 1302014.
##  4 Australia              50440317.
##  5 Austria                26841839.
##  6 Azerbaijan              3666756.
##  7 Bahrain                 1221733.
##  8 Bangladesh                45290.
##  9 Belarus                 2865627.
## 10 Belgium                21558413.
## # … with 107 more rows

full_tidied %>% group_by(country) %>% summarize(var(CO2_emission))

## # A tibble: 117 x 2
##    country    `var(CO2_emission)`
##    <fct>                    <dbl>
##  1 Albania                 0.266 
##  2 Argentina               0.330 
##  3 Armenia                 0.586 
##  4 Australia               1.84  
##  5 Austria                 0.513 
##  6 Azerbaijan              0.188 
##  7 Bahrain                19.9   
##  8 Bangladesh              0.0231
##  9 Belarus                 2.82  
## 10 Belgium                 3.33  
## # … with 107 more rows

full_tidied %>% group_by(country) %>% summarize(var(life_expectancy))

## # A tibble: 117 x 2
##    country    `var(life_expectancy)`
##    <fct>                       <dbl>
##  1 Albania                      3.17
##  2 Argentina                    1.86
##  3 Armenia                      4.66
##  4 Australia                    3.63
##  5 Austria                      3.85
##  6 Azerbaijan                   4.26
##  7 Bahrain                     11.5 
##  8 Bangladesh                  20.1 
##  9 Belarus                      3.73
## 10 Belgium                      2.80
## # … with 107 more rows

full_tidied %>% group_by(country) %>% summarize(min(fertility))

## # A tibble: 117 x 2
##    country    `min(fertility)`
##    <fct>                 <dbl>
##  1 Albania                1.65
##  2 Argentina              2.28
##  3 Armenia                1.2 
##  4 Australia              1.76
##  5 Austria                1.33
##  6 Azerbaijan             1.82
##  7 Bahrain                2.01
##  8 Bangladesh             2.08
##  9 Belarus                1.24
## 10 Belgium                1.58
## # … with 107 more rows

full_tidied %>% group_by(country) %>% summarize(min(GDP_Per_Capita))

## # A tibble: 117 x 2
##    country    `min(GDP_Per_Capita)`
##    <fct>                      <int>
##  1 Albania                     1240
##  2 Argentina                   6250
##  3 Armenia                      885
##  4 Australia                  35000
##  5 Austria                    33900
##  6 Azerbaijan                  1230
##  7 Bahrain                    17900
##  8 Bangladesh                   411
##  9 Belarus                     2020
## 10 Belgium                    32700
## # … with 107 more rows

full_tidied %>% group_by(country) %>% summarize(min(CO2_emission))

## # A tibble: 117 x 2
##    country    `min(CO2_emission)`
##    <fct>                    <dbl>
##  1 Albania                  0.707
##  2 Argentina                2.55 
##  3 Armenia                  0.59 
##  4 Australia               13.5  
##  5 Austria                 10.4  
##  6 Azerbaijan               2.98 
##  7 Bahrain                 10.3  
##  8 Bangladesh               0.169
##  9 Belarus                  2.61 
## 10 Belgium                 14.7  
## # … with 107 more rows

full_tidied %>% group_by(country) %>% summarize(min(life_expectancy))

## # A tibble: 117 x 2
##    country    `min(life_expectancy)`
##    <fct>                       <dbl>
##  1 Albania                      72.5
##  2 Argentina                    72.4
##  3 Armenia                      68.6
##  4 Australia                    76.9
##  5 Austria                      75.8
##  6 Azerbaijan                   63.5
##  7 Bahrain                      70.4
##  8 Bangladesh                   56.8
##  9 Belarus                      67.8
## 10 Belgium                      76  
## # … with 107 more rows

full_tidied %>% group_by(country) %>% summarize(max(fertility))

## # A tibble: 117 x 2
##    country    `max(fertility)`
##    <fct>                 <dbl>
##  1 Albania                2.98
##  2 Argentina              2.99
##  3 Armenia                2.54
##  4 Australia              1.94
##  5 Austria                1.51
##  6 Azerbaijan             3.09
##  7 Bahrain                3.74
##  8 Bangladesh             4.55
##  9 Belarus                1.9 
## 10 Belgium                1.81
## # … with 107 more rows

full_tidied %>% group_by(country) %>% summarize(max(GDP_Per_Capita))

## # A tibble: 117 x 2
##    country    `max(GDP_Per_Capita)`
##    <fct>                      <int>
##  1 Albania                     4860
##  2 Argentina                  10900
##  3 Armenia                     4200
##  4 Australia                  56100
##  5 Austria                    49100
##  6 Azerbaijan                  6070
##  7 Bahrain                    23000
##  8 Bangladesh                  1130
##  9 Belarus                     6650
## 10 Belgium                    46600
## # … with 107 more rows

full_tidied %>% group_by(country) %>% summarize(max(CO2_emission))

## # A tibble: 117 x 2
##    country    `max(CO2_emission)`
##    <fct>                    <dbl>
##  1 Albania                  2.17 
##  2 Argentina                4.7  
##  3 Armenia                  3.87 
##  4 Australia               17.5  
##  5 Austria                 12.8  
##  6 Azerbaijan               4.76 
##  7 Bahrain                 24.2  
##  8 Bangladesh               0.644
##  9 Belarus                  8.21 
## 10 Belgium                 20.8  
## # … with 107 more rows

full_tidied %>% group_by(country) %>% summarize(max(life_expectancy))

## # A tibble: 117 x 2
##    country    `max(life_expectancy)`
##    <fct>                       <dbl>
##  1 Albania                      78.2
##  2 Argentina                    76.7
##  3 Armenia                      75.6
##  4 Australia                    82.6
##  5 Austria                      81.8
##  6 Azerbaijan                   70.8
##  7 Bahrain                      79.5
##  8 Bangladesh                   73.1
##  9 Belarus                      74  
## 10 Belgium                      81.4
## # … with 107 more rows

full_tidied %>% group_by(country) %>% summarize(quantile(fertility))

## # A tibble: 585 x 2
## # Groups:   country [117]
##    country   `quantile(fertility)`
##    <fct>                     <dbl>
##  1 Albania                    1.65
##  2 Albania                    1.7 
##  3 Albania                    1.86
##  4 Albania                    2.44
##  5 Albania                    2.98
##  6 Argentina                  2.28
##  7 Argentina                  2.37
##  8 Argentina                  2.49
##  9 Argentina                  2.67
## 10 Argentina                  2.99
## # … with 575 more rows

full_tidied %>% group_by(country) %>% summarize(quantile(GDP_Per_Capita))

## # A tibble: 585 x 2
## # Groups:   country [117]
##    country   `quantile(GDP_Per_Capita)`
##    <fct>                          <dbl>
##  1 Albania                        1240 
##  2 Albania                        1840 
##  3 Albania                        2810 
##  4 Albania                        4120 
##  5 Albania                        4860 
##  6 Argentina                      6250 
##  7 Argentina                      7752.
##  8 Argentina                      8560 
##  9 Argentina                     10250 
## 10 Argentina                     10900 
## # … with 575 more rows

full_tidied %>% group_by(country) %>% summarize(quantile(CO2_emission))

## # A tibble: 585 x 2
## # Groups:   country [117]
##    country   `quantile(CO2_emission)`
##    <fct>                        <dbl>
##  1 Albania                      0.707
##  2 Albania                      1.12 
##  3 Albania                      1.75 
##  4 Albania                      1.98 
##  5 Albania                      2.17 
##  6 Argentina                    2.55 
##  7 Argentina                    3.48 
##  8 Argentina                    3.77 
##  9 Argentina                    4.42 
## 10 Argentina                    4.7  
## # … with 575 more rows

full_tidied %>% group_by(country) %>% summarize(quantile(life_expectancy))

## # A tibble: 585 x 2
## # Groups:   country [117]
##    country   `quantile(life_expectancy)`
##    <fct>                           <dbl>
##  1 Albania                          72.5
##  2 Albania                          74.5
##  3 Albania                          75.5
##  4 Albania                          77.6
##  5 Albania                          78.2
##  6 Argentina                        72.4
##  7 Argentina                        73.4
##  8 Argentina                        74.6
##  9 Argentina                        75.8
## 10 Argentina                        76.7
## # … with 575 more rows
…
